{
	"partitions" : [
		{
			"name" : "Top",
			"pins" : [
				{
					"name" : "GPIO_1_D[0]",
					"strict" : false
				},
				{
					"name" : "GPIO_1_D[1]",
					"strict" : false
				},
				{
					"name" : "GPIO_1_D[2]",
					"strict" : false
				},
				{
					"name" : "GPIO_1_D[3]",
					"strict" : false
				},
				{
					"name" : "GPIO_1_D[4]",
					"strict" : false
				},
				{
					"name" : "GPIO_1_D[5]",
					"strict" : false
				},
				{
					"name" : "GPIO_1_D[6]",
					"strict" : false
				},
				{
					"name" : "GPIO_1_D[7]",
					"strict" : false
				},
				{
					"name" : "GPIO_1_D[8]",
					"strict" : false
				},
				{
					"name" : "GPIO_1_D[9]",
					"strict" : false
				},
				{
					"name" : "GPIO_1_D[10]",
					"strict" : false
				},
				{
					"name" : "GPIO_1_D[11]",
					"strict" : false
				},
				{
					"name" : "GPIO_1_D[12]",
					"strict" : false
				},
				{
					"name" : "GPIO_1_D[13]",
					"strict" : false
				},
				{
					"name" : "GPIO_1_D[14]",
					"strict" : false
				},
				{
					"name" : "GPIO_1_D[15]",
					"strict" : false
				},
				{
					"name" : "GPIO_1_D[16]",
					"strict" : false
				},
				{
					"name" : "GPIO_1_D[17]",
					"strict" : false
				},
				{
					"name" : "GPIO_1_D[18]",
					"strict" : false
				},
				{
					"name" : "GPIO_1_D[19]",
					"strict" : false
				},
				{
					"name" : "CLOCK_50",
					"strict" : false
				},
				{
					"name" : "KEY_N[0]",
					"strict" : false
				}
			]
		}
	]
}